{
  "_note1": "KEEP THIS FILE! Check it into a version control system (VCS) like git.",
  "_note2": "ObjectBox manages crucial IDs for your object model. See docs for details.",
  "_note3": "If you have VCS merge conflicts, you must resolve them according to ObjectBox docs.",
  "entities": [
    {
      "id": "1:5793889127216310824",
      "lastPropertyId": "7:1273103051549706241",
      "name": "Puesto",
      "properties": [
        {
          "id": "1:8946277646751531024",
          "name": "id"
        },
        {
          "id": "2:4257181202364002187",
          "name": "nombreOcupante"
        },
        {
          "id": "3:5635846693169720268",
          "name": "zona"
        },
        {
          "id": "4:3980341918693548975",
          "name": "fecha"
        },
        {
          "id": "5:573288282050916994",
          "name": "laptop"
        },
        {
          "id": "6:3779054340681400164",
          "name": "desktop"
        },
        {
          "id": "7:1273103051549706241",
          "name": "telefono"
        }
      ],
      "relations": []
    }
  ],
  "lastEntityId": "1:5793889127216310824",
  "lastIndexId": "0:0",
  "lastRelationId": "0:0",
  "lastSequenceId": "0:0",
  "modelVersion": 4,
  "modelVersionParserMinimum": 4,
  "retiredEntityUids": [],
  "retiredIndexUids": [],
  "retiredPropertyUids": [],
  "retiredRelationUids": [],
  "version": 1
}